tools/rt/schedtool-deadline/sched_fifo_trace.vcd
$timescale 1us $end
$scope module sched_switch $end
$var wire 1 ! metacity-1216#n0#0 $end
$var wire 1 " Xorg-745#n0#6 $end
$var wire 1 # <idle>-0#idle#62 $end
$var wire 1 $ sirq-hrtimer/0-10#r49#0 $end
$var wire 1 % yes-1309#n0#27 $end
$var wire 1 & sirq-timer/0-4#r49#0 $end
$var wire 1 ' gnome-terminal-1300#n0#3 $end
$var wire 1 ( irq/1-i8042-249#r50#0 $end
$var wire 1 ) sirq-tasklet/0-8#r49#0 $end
$var wire 1 * events/0-15#r1#0 $end
$var wire 1 + hald-addon-inpu-851#n0#0 $end
$var wire 1 , scim-launcher-1154#n0#0 $end
$var wire 1 - gnome-settings--1200#n0#0 $end
$var wire 1 . update-notifier-1226#n0#0 $end
$var wire 1 / bash-1313#n0#0 $end
$var wire 1 0 dmesg-1318#n0#0 $end
$var wire 1 1 sirq-rcu/0-11#r49#0 $end
$var wire 1 2 scim-panel-gtk-1152#n0#0 $end
$var wire 1 3 lunar-applet-1295#n0#0 $end
$var wire 1 4 cpufreq-applet-1291#n0#0 $end
$var wire 1 5 pdflush-113#n0#0 $end
$var wire 1 6 sirq-net-tx/0-5#r49#0 $end
$var wire 1 7 gnome-panel-1285#n0#0 $end
$var wire 1 8 uname-1319#n0#0 $end
$var wire 1 9 nautilus-1218#n0#0 $end
$var wire 1 : ssh-agent-1167#n0#0 $end
$var wire 1 ; uname-1320#n0#0 $end
$var wire 1 < init-1#n0#0 $end
$var wire 1 = sync-1321#n0#0 $end
$var wire 1 > kjournald-265#n5#0 $end
$var wire 1 ? kjournald-551#n5#0 $end
$var wire 1 @ irq/14-ide0-228#r50#0 $end
$var wire 1 A kblockd/0-76#n5#0 $end
$var wire 1 B desched/0-13#n10#0 $end
$var wire 1 C dmesg-1322#n0#0 $end
$var wire 1 D dmesg-1323#n0#0 $end
$var wire 1 E irq/12-i8042-248#r50#0 $end
$var wire 1 F scim-launcher-1147#n0#0 $end
$var wire 1 G scim-panel-gtk-1153#n0#0 $end
$var wire 1 H notification-da-1202#n0#0 $end
$var wire 1 I gnome-power-man-1196#n0#0 $end
$var wire 1 J gnome-volume-ma-1249#n0#0 $end
$var wire 1 K cron-926#n0#0 $end
$var wire 1 L gconfd-2-1178#n0#0 $end
$var wire 1 M bash-1304#n0#0 $end
$upscope $end
$enddefinitions $end
#0
Z!
Z"
Z#
Z$
Z%
Z&
Z'
Z(
Z)
Z*
Z+
Z,
Z-
Z.
Z/
Z0
Z1
Z2
Z3
Z4
Z5
Z6
Z7
Z8
Z9
Z:
Z;
Z<
Z=
Z>
Z?
Z@
ZA
ZB
ZC
ZD
ZE
ZF
ZG
ZH
ZI
ZJ
ZK
ZL
ZM
#103
X!
#111
Z"
0!
#117
Z!
0"
#157
X!
#162
Z"
0!
#171
Z!
0"
#176
X!
#181
Z"
0!
#298
Z!
0"
#361
Z"
0#
#974
X$
#990
Z#
0$
#1005
Z$
0%
#1496
X&
#8386
X'
#10489
Z%
0$
#10503
Z$
0&
#10517
Z&
0'
#10947
Z'
0#
#24955
X'
#24969
Z#
0'
#25489
X&
#25507
Z'
0&
#25524
Z&
0'
#26190
X"
#26358
Z'
0"
#26490
X&
#26506
Z"
0&
#26520
Z&
0"
#26530
X'
#26536
Z"
0'
#26562
Z'
0"
#26889
X(
#26900
Z"
0(
#26940
X)
#26949
X*
#26981
X+
#27028
Z(
0)
#27041
Z)
0*
#27074
Z*
0+
#27170
Z+
0"
#27490
X&
#27511
Z"
0&
#27524
Z&
0"
#27740
X'
#27749
Z"
0'
#27794
Z'
0"
#27802
X'
#27808
Z"
0'
#28357
Z'
0"
#28486
X&
#28501
Z"
0&
#28517
Z&
0"
#28554
X'
#28560
Z"
0'
#28585
Z'
0"
#28658
X,
#28664
Z"
0,
#28680
Z,
0"
#28685
X,
#28691
Z"
0,
#28779
Z,
0"
#28800
X-
#28806
Z"
0-
#28837
Z-
0"
#28843
X-
#28848
Z"
0-
#29077
Z-
0"
#29173
X,
#29180
Z"
0,
#29187
Z,
0"
#29239
X,
#29245
Z"
0,
#29254
Z,
0"
#29259
X,
#29264
Z"
0,
#29488
X&
#29505
Z,
0&
#29520
Z&
0,
#29539
Z,
0"
#29558
X-
#29564
Z"
0-
#29586
Z-
0"
#29590
X-
#29596
Z"
0-
#29787
Z-
0"
#29874
X,
#29881
Z"
0,
#29887
Z,
0"
#29922
X,
#29927
Z"
0,
#29935
Z,
0"
#29940
X,
#29946
Z"
0,
#30030
Z,
0"
#30097
X,
#30104
Z"
0,
#30111
Z,
0"
#30159
X-
#30164
Z"
0-
#30185
Z-
0"
#30190
X-
#30195
Z"
0-
#30356
Z-
0"
#30380
X'
#30386
Z"
0'
#30415
Z'
0"
#30420
X'
#30425
Z"
0'
#30480
X&
#30495
Z'
0&
#30507
Z&
0'
#30585
Z'
0"
#30694
X'
#30700
Z"
0'
#30707
Z'
0"
#30754
X-
#30759
Z"
0-
#30781
Z-
0"
#30785
X-
#30791
Z"
0-
#30956
Z-
0"
#30968
X$
#30976
Z"
0$
#30990
Z$
0%
#31478
X&
#41470
Z%
0$
#41487
Z$
0&
#41499
Z&
0"
#41531
X'
#41538
Z"
0'
#41552
Z'
0"
#41557
X'
#41563
Z"
0'
#42216
Z'
0"
#42360
X'
#42368
Z"
0'
#42393
Z'
0"
#42444
X,
#42450
Z"
0,
#42473
X&
#42487
Z,
0&
#42500
Z&
0,
#42510
Z,
0"
#42515
X,
#42521
Z"
0,
#42612
Z,
0"
#42682
Z"
0#
#56215
X'
#56231
Z#
0'
#56440
Z'
0#
#60971
X$
#60983
Z#
0$
#60995
Z$
0%
#61456
X&
#70452
Z%
0$
#70466
Z$
0&
#70478
Z&
0#
#72866
X.
#72879
Z#
0.
#73049
Z.
0#
#90969
X$
#90979
Z#
0$
#90987
Z$
0%
#91436
X&
#98211
X(
#101430
Z%
0(
#101468
X)
#101477
X*
#101504
X"
#101511
X+
#101555
Z(
0$
#101565
Z$
0&
#101576
Z&
0)
#101588
Z)
0*
#101620
Z*
0+
#101702
Z+
0"
#101969
X'
#101980
Z"
0'
#102018
Z'
0"
#102025
X'
#102030
Z"
0'
#102443
X&
#102461
Z'
0&
#102477
Z&
0'
#102611
Z'
0"
#102745
X'
#102752
Z"
0'
#102777
Z'
0"
#102821
X(
#102829
Z"
0(
#102854
X)
#102861
X*
#102883
X+
#102927
Z(
0)
#102937
Z)
0*
#102960
Z*
0+
#103026
Z+
0"
#103336
X-
#103346
Z"
0-
#103379
Z-
0"
#103385
X-
#103391
Z"
0-
#103435
X&
#103448
Z-
0&
#103461
Z&
0-
#103670
Z-
0"
#103720
X,
#103727
Z"
0,
#103741
Z,
0"
#103746
X,
#103752
Z"
0,
#103834
Z,
0"
#103852
X'
#103857
Z"
0'
#103888
Z'
0"
#103893
X'
#103899
Z"
0'
#104440
X&
#104458
Z'
0&
#104474
Z&
0'
#104931
Z'
0"
#105074
X'
#105083
Z"
0'
#105106
Z'
0"
#105200
X,
#105207
Z"
0,
#105218
Z,
0"
#105224
X,
#105230
Z"
0,
#105264
Z,
0"
#105280
X-
#105285
Z"
0-
#105310
Z-
0"
#105315
X-
#105321
Z"
0-
#105436
X&
#105451
Z-
0&
#105465
Z&
0-
#105581
Z-
0"
#105605
X!
#105611
Z"
0!
#105631
Z!
0"
#105636
X!
#105642
Z"
0!
#105790
Z!
0"
#105887
X!
#105894
Z"
0!
#105900
Z!
0"
#105943
X!
#105948
Z"
0!
#105957
Z!
0"
#105962
X!
#105967
Z"
0!
#106094
Z!
0"
#106169
X,
#106176
Z"
0,
#106183
Z,
0"
#106230
X,
#106235
Z"
0,
#106245
Z,
0"
#106250
X,
#106256
Z"
0,
#106434
X&
#106449
Z,
0&
#106465
Z&
0,
#106523
Z,
0"
#106545
X-
#106551
Z"
0-
#106578
Z-
0"
#106583
X-
#106588
Z"
0-
#106783
Z-
0"
#106874
X,
#106881
Z"
0,
#106888
Z,
0"
#106921
X,
#106926
Z"
0,
#106935
Z,
0"
#106940
X,
#106945
Z"
0,
#107044
Z,
0"
#107110
X,
#107117
Z"
0,
#107123
Z,
0"
#107133
X,
#107138
Z"
0,
#107143
Z,
0"
#107205
X,
#107210
Z"
0,
#107221
Z,
0"
#107227
X,
#107232
Z"
0,
#107287
Z,
0"
#107308
X-
#107313
Z"
0-
#107334
Z-
0"
#107338
X-
#107344
Z"
0-
#107432
X&
#107446
Z-
0&
#107458
Z&
0-
#107572
Z-
0"
#107595
X'
#107601
Z"
0'
#107630
Z'
0"
#107636
X'
#107641
Z"
0'
#107755
Z'
0"
#107870
X'
#107876
Z"
0'
#107883
Z'
0"
#107928
X-
#107934
Z"
0-
#107954
Z-
0"
#107959
X-
#107965
Z"
0-
#108130
Z-
0"
#108150
X'
#108155
Z"
0'
#108165
Z'
0"
#108170
X'
#108175
Z"
0'
#108434
X&
#108451
Z'
0&
#108466
Z&
0'
#108789
Z'
0"
#108915
X'
#108922
Z"
0'
#108945
Z'
0"
#108988
X,
#108993
Z"
0,
#109007
Z,
0"
#109012
X,
#109018
Z"
0,
#109206
Z,
0"
#109285
X,
#109291
Z"
0,
#109297
Z,
0"
#109326
X,
#109331
Z"
0,
#109340
Z,
0"
#109345
X,
#109351
Z"
0,
#109432
X&
#109445
Z,
0&
#109457
Z&
0,
#109475
Z,
0"
#109539
X,
#109545
Z"
0,
#109551
Z,
0"
#109602
X-
#109608
Z"
0-
#109633
Z-
0"
#109637
X-
#109643
Z"
0-
#109836
Z-
0"
#109860
X'
#109865
Z"
0'
#109894
Z'
0"
#109899
X'
#109904
Z"
0'
#110011
Z'
0"
#110119
X'
#110126
Z"
0'
#110132
Z'
0"
#110176
X-
#110181
Z"
0-
#110202
Z-
0"
#110207
X-
#110212
Z"
0-
#110373
Z-
0"
#110394
X'
#110400
Z"
0'
#110409
Z'
0"
#110413
X'
#110432
X&
#110445
Z"
0&
#110456
Z&
0'
#111150
X/
#111162
Z'
0/
#111179
X'
#111192
Z/
0'
#111198
X/
#111204
Z'
0/
#111250
X/
#111434
X&
#111452
Z/
0&
#111466
Z&
0/
#112475
X&
#112520
Z/
0&
#112551
Z&
0/
#112630
X0
#112639
Z/
00
#113456
X&
#113490
Z0
0&
#113515
Z&
00
#114454
X&
#114484
Z0
0&
#114507
Z&
00
#114596
Z0
0'
#115382
Z'
0/
#115432
X&
#115451
Z/
0&
#115465
Z&
0"
#115707
X'
#115719
Z"
0'
#115748
Z'
0"
#115906
X,
#115914
Z"
0,
#115937
Z,
0"
#115944
X,
#115952
Z"
0,
#116091
Z,
0"
#116117
X!
#116123
Z"
0!
#116145
Z!
0"
#116150
X!
#116156
Z"
0!
#116343
Z!
0"
#116431
X&
#116447
Z"
0&
#116463
Z&
0"
#116515
X!
#116522
Z"
0!
#116528
Z!
0"
#116577
X!
#116582
Z"
0!
#116592
Z!
0"
#116597
X!
#116603
Z"
0!
#116758
Z!
0"
#116831
Z"
0/
#117442
X&
#117467
Z/
0&
#117486
Z&
0/
#118311
X0
#118338
Z/
00
#118362
Z0
0/
#118370
X0
#118376
Z/
00
#118390
Z0
0/
#118397
X0
#118403
Z/
00
#118438
X&
#118458
Z0
0&
#118476
Z&
00
#119448
X&
#119480
Z0
0&
#119500
Z&
00
#120458
X&
#120499
Z0
0&
#120525
Z&
00
#120980
X$
#121000
Z0
0$
#121018
Z$
0%
#121430
X&
#124395
X'
#130346
X2
#130413
X1
#131419
Z%
0$
#131439
Z$
0&
#131453
Z&
01
#131469
Z1
02
#131688
Z2
0'
#132023
X(
#132035
Z'
0(
#132087
X)
#132099
X*
#132136
X"
#132146
X+
#132201
Z(
0)
#132220
Z)
0*
#132263
Z*
0+
#132395
Z+
0'
#132420
X&
#132434
Z'
0&
#132445
Z&
0'
#133424
X&
#133445
Z'
0&
#133464
Z&
00
#134445
X&
#134483
Z0
0&
#134513
Z&
0'
#135429
X&
#135451
Z'
0&
#135470
Z&
0'
#136426
X&
#136447
Z'
0&
#136464
Z&
00
#137427
X&
#137458
Z0
0&
#137480
Z&
0'
#138424
X&
#138447
Z'
0&
#138464
Z&
00
#139429
X&
#139460
Z0
0&
#139482
Z&
0'
#140421
X&
#140447
Z'
0&
#140464
Z&
00
#141426
X&
#141456
Z0
0&
#141476
Z&
0'
#142422
X&
#142448
Z'
0&
#142465
Z&
00
#142656
Z0
0'
#143417
X&
#143441
Z'
0&
#143457
Z&
0'
#144412
X&
#144435
Z'
0&
#144449
Z&
0'
#145414
X&
#145436
Z'
0&
#145449
Z&
0'
#146225
Z'
0"
#146415
X&
#146440
Z"
0&
#146455
Z&
0"
#146698
X'
#147410
X&
#147424
X1
#147439
Z"
0&
#147455
Z&
01
#147477
Z1
0'
#147990
Z'
0"
#148416
X&
#148439
Z"
0&
#148457
Z&
0"
#149408
X&
#149426
Z"
0&
#149440
Z&
0"
#150005
X'
#150017
Z"
0'
#150031
Z'
0"
#150045
X'
#150050
Z"
0'
#150057
Z'
0"
#150402
X&
#150418
Z"
0&
#150429
Z&
0"
#150972
X$
#150981
Z"
0$
#150997
Z$
0%
#151402
X&
#151410
X1
#160399
Z%
0$
#160416
Z$
0&
#160429
Z&
01
#160450
Z1
0"
#161396
X&
#161408
Z"
0&
#161417
Z&
0"
#161568
X'
#161579
Z"
0'
#161604
Z'
0"
#161612
X'
#161618
Z"
0'
#162407
X&
#162431
Z'
0&
#162450
Z&
0'
#163400
X&
#163418
Z'
0&
#163432
Z&
0'
#164395
X&
#164413
Z'
0&
#164426
Z&
0'
#165122
Z'
0"
#165329
X'
#165399
X&
#165419
Z"
0&
#165434
Z&
0'
#165462
Z'
0"
#166431
X&
#166469
Z"
0&
#166496
Z&
0/
#167402
X&
#167423
Z/
0&
#167439
Z&
0"
#168428
X&
#168465
Z"
0&
#168490
Z&
0/
#169358
X'
#169376
Z/
0'
#169402
X&
#169420
Z'
0&
#169431
Z&
0'
#169505
Z'
0/
#169513
X'
#169520
Z/
0'
#169640
X/
#169841
Z'
0/
#169900
Z/
0"
#170411
X&
#170439
Z"
0&
#170459
Z&
0"
#171416
X&
#171435
X1
#171460
Z"
0&
#171486
Z&
01
#171508
Z1
0"
#172410
X&
#172442
Z"
0&
#172465
Z&
0"
#173408
X&
#173437
Z"
0&
#173457
Z&
0"
#174386
X&
#174400
Z"
0&
#174410
Z&
0"
#175390
X&
#175400
X1
#175414
Z"
0&
#175427
Z&
01
#175447
Z1
0"
#176384
X&
#176397
Z"
0&
#176407
Z&
0"
#177386
X&
#177402
Z"
0&
#177414
Z&
0"
#178381
X&
#178395
Z"
0&
#178404
Z&
0"
#179386
X&
#179403
Z"
0&
#179415
Z&
0"
#180381
X&
#180394
Z"
0&
#180404
Z&
0"
#180970
X$
#180981
Z"
0$
#180999
Z$
0%
#181386
X&
#187375
X1
#191380
Z%
0$
#191433
Z$
0&
#191443
Z&
01
#191466
Z1
0"
#192377
X&
#192392
Z"
0&
#192403
Z&
0"
#192663
X,
#192676
Z"
0,
#192712
Z,
0"
#192721
X,
#192728
Z"
0,
#192921
Z,
0"
#192951
X-
#192957
Z"
0-
#192997
Z-
0"
#193003
X-
#193009
Z"
0-
#193365
Z-
0"
#193394
X&
#193415
Z"
0&
#193429
Z&
0"
#194382
X&
#194403
Z"
0&
#194420
Z&
0"
#194831
X'
#194844
Z"
0'
#195381
X&
#195406
Z'
0&
#195421
Z&
0'
#196386
X&
#196410
Z'
0&
#196428
Z&
0'
#196910
Z'
0"
#196956
X'
#196967
Z"
0'
#197103
Z'
0"
#197379
X&
#197399
Z"
0&
#197412
Z&
0"
#198383
X&
#198407
Z"
0&
#198423
Z&
0"
#199367
X&
#199381
Z"
0&
#199391
Z&
0"
#200369
X&
#200384
Z"
0&
#200397
Z&
0"
#201367
X&
#201380
Z"
0&
#201389
Z&
0"
#202370
X&
#202387
Z"
0&
#202396
Z&
0"
#203365
X&
#203372
X1
#203382
Z"
0&
#203391
Z&
01
#203407
Z1
0"
#204367
X&
#204379
Z"
0&
#204391
Z&
0"
#205370
X&
#205384
Z"
0&
#205394
Z&
0"
#206363
X&
#206374
Z"
0&
#206384
Z&
0"
#207368
X&
#207381
Z"
0&
#207393
Z&
0"
#208361
X&
#208371
Z"
0&
#208380
Z&
0"
#209363
X&
#209374
Z"
0&
#209384
Z&
0"
#210362
X&
#210376
Z"
0&
#210386
Z&
0"
#210968
X$
#210976
Z"
0$
#210992
Z$
0%
#211366
X&
#220359
Z%
0$
#220404
Z$
0&
#220417
Z&
0"
#221359
X&
#221372
Z"
0&
#221382
Z&
0"
#222364
X&
#222384
Z"
0&
#222400
Z&
0"
#223354
X&
#223367
Z"
0&
#223376
Z&
0"
#224092
X'
#224105
Z"
0'
#224357
X&
#224370
Z'
0&
#224382
Z&
0'
#224597
Z'
0"
#225362
X&
#225380
Z"
0&
#225396
Z&
0"
#226353
X&
#226365
Z"
0&
#226376
Z&
0"
#227351
X&
#227360
Z"
0&
#227368
Z&
0"
#228358
X&
#228375
Z"
0&
#228390
Z&
0"
#229356
X&
#229369
Z"
0&
#229379
Z&
0"
#230349
X&
#230356
Z"
0&
#230364
Z&
0"
#231346
X&
#231353
Z"
0&
#231360
Z&
0"
#232345
X&
#232352
Z"
0&
#232359
Z&
0"
#233346
X&
#233354
Z"
0&
#233363
Z&
0"
#234348
X&
#234357
Z"
0&
#234366
Z&
0"
#235345
X&
#235353
Z"
0&
#235361
Z&
0"
#236345
X&
#236351
Z"
0&
#236360
Z&
0"
#237343
X&
#237349
Z"
0&
#237356
Z&
0"
#238343
X&
#238351
Z"
0&
#238358
Z&
0"
#239342
X&
#239350
Z"
0&
#239358
Z&
0"
#240342
X&
#240351
Z"
0&
#240359
Z&
0"
#240969
X$
#240974
Z"
0$
#240986
Z$
0%
#241341
X&
#251341
Z%
0$
#251384
Z$
0&
#251397
Z&
0"
#252338
X&
#252349
Z"
0&
#252356
Z&
0"
#253334
X&
#253342
Z"
0&
#253349
Z&
0"
#254332
X&
#254338
Z"
0&
#254345
Z&
0"
#255332
X&
#255339
Z"
0&
#255346
Z&
0"
#256330
X&
#256336
Z"
0&
#256343
Z&
0"
#257331
X&
#257341
Z"
0&
#257349
Z&
0"
#258330
X&
#258338
Z"
0&
#258346
Z&
0"
#259329
X&
#259338
Z"
0&
#259346
Z&
0"
#260331
X&
#260338
Z"
0&
#260346
Z&
0"
#261326
X&
#261334
Z"
0&
#261340
Z&
0"
#261743
X$
#261747
Z"
0$
#261770
Z$
0"
#262327
X&
#262335
Z"
0&
#262343
Z&
0"
#263326
X&
#263333
Z"
0&
#263341
Z&
0"
#264326
X&
#264333
Z"
0&
#264340
Z&
0"
#265324
X&
#265331
Z"
0&
#265338
Z&
0"
#266326
X&
#266333
Z"
0&
#266341
Z&
0"
#267323
X&
#267332
Z"
0&
#267340
Z&
0"
#268323
X&
#268330
Z"
0&
#268341
Z&
0"
#269325
X&
#269332
Z"
0&
#269341
Z&
0"
#270322
X&
#270329
Z"
0&
#270337
Z&
0"
#270967
X$
#270971
Z"
0$
#270984
Z$
0%
#271322
X&
#281318
Z%
0$
#281331
Z$
0&
#281343
Z&
0"
#281729
X$
#281737
Z"
0$
#281757
Z$
0"
#282314
X&
#282323
Z"
0&
#282331
Z&
0"
#283313
X&
#283321
Z"
0&
#283328
Z&
0"
#284313
X&
#284319
Z"
0&
#284326
Z&
0"
#285313
X&
#285319
Z"
0&
#285325
Z&
0"
#286312
X&
#286320
Z"
0&
#286328
Z&
0"
#287312
X&
#287320
Z"
0&
#287329
Z&
0"
#288312
X&
#288319
Z"
0&
#288326
Z&
0"
#289311
X&
#289318
Z"
0&
#289327
Z&
0"
#290310
X&
#290316
Z"
0&
#290323
Z&
0"
#291308
X&
#291315
Z"
0&
#291322
Z&
0"
#292306
X&
#292312
Z"
0&
#292319
Z&
0"
#293308
X&
#293315
Z"
0&
#293322
Z&
0"
#294306
X&
#294312
Z"
0&
#294319
Z&
0"
#295306
X&
#295315
Z"
0&
#295324
Z&
0"
#296305
X&
#296312
Z"
0&
#296321
Z&
0"
#297306
X&
#297314
Z"
0&
#297321
Z&
0"
#298305
X&
#298312
Z"
0&
#298320
Z&
0"
#299303
X&
#299309
Z"
0&
#299316
Z&
0"
#300303
X&
#300311
Z"
0&
#300318
Z&
0"
#300966
X$
#300971
Z"
0$
#300982
Z$
0%
#301300
X&
#302305
X3
#310300
Z%
0$
#310331
Z$
0&
#310343
Z&
03
#310577
Z3
0"
#311303
X&
#311316
Z"
0&
#311326
Z&
0"
#312296
X&
#312303
Z"
0&
#312310
Z&
0"
#313297
X&
#313305
Z"
0&
#313313
Z&
0"
#314293
X&
#314301
Z"
0&
#314309
Z&
0"
#315295
X&
#315302
Z"
0&
#315310
Z&
0"
#316292
X&
#316299
Z"
0&
#316307
Z&
0"
#317291
X&
#317297
Z"
0&
#317305
Z&
0"
#318290
X&
#318296
Z"
0&
#318303
Z&
0"
#319290
X&
#319296
Z"
0&
#319304
Z&
0"
#320289
X&
#320295
Z"
0&
#320302
Z&
0"
#321288
X&
#321295
Z"
0&
#321302
Z&
0"
#321705
X$
#321709
Z"
0$
#321731
Z$
0"
#322293
X&
#322299
Z"
0&
#322307
Z&
0"
#323287
X&
#323297
Z"
0&
#323305
Z&
0"
#324288
X&
#324295
Z"
0&
#324303
Z&
0"
#325289
X&
#325296
Z"
0&
#325303
Z&
0"
#326287
X&
#326294
Z"
0&
#326302
Z&
0"
#327294
X&
#327308
Z"
0&
#327321
Z&
0"
#327335
X'
#327343
Z"
0'
#327390
Z'
0"
#328298
X&
#328317
Z"
0&
#328334
Z&
0"
#329075
X,
#329086
Z"
0,
#329098
Z,
0"
#329196
X,
#329203
Z"
0,
#329220
Z,
0"
#329227
X,
#329233
Z"
0,
#329291
X&
#329303
Z,
0&
#329314
Z&
0,
#329579
Z,
0"
#329607
X-
#329613
Z"
0-
#329648
Z-
0"
#329654
X-
#329660
Z"
0-
#329971
Z-
0"
#330074
X,
#330083
Z"
0,
#330091
Z,
0"
#330132
X,
#330137
Z"
0,
#330146
Z,
0"
#330151
X,
#330156
Z"
0,
#330264
Z,
0"
#330293
X&
#330308
Z"
0&
#330321
Z&
0"
#330392
X,
#330397
Z"
0,
#330404
Z,
0"
#330466
X-
#330472
Z"
0-
#330494
Z-
0"
#330500
X-
#330505
Z"
0-
#330695
Z-
0"
#330720
X'
#330727
Z"
0'
#330762
Z'
0"
#330767
X'
#330772
Z"
0'
#330916
Z'
0"
#330973
X$
#330983
Z"
0$
#330997
Z$
0%
#331289
X&
#341280
Z%
0$
#341298
Z$
0&
#341311
Z&
0"
#341413
X'
#341423
Z"
0'
#341432
Z'
0"
#341501
X-
#341507
Z"
0-
#341534
Z-
0"
#341540
X-
#341545
Z"
0-
#341763
Z-
0"
#341788
X'
#341795
Z"
0'
#341805
Z'
0"
#341810
X'
#341816
Z"
0'
#342289
X&
#342306
Z'
0&
#342323
Z&
0'
#342797
Z'
0"
#342945
X'
#342954
Z"
0'
#342979
Z'
0"
#343033
X,
#343039
Z"
0,
#343054
Z,
0"
#343060
X,
#343065
Z"
0,
#343166
Z,
0"
#343232
Z"
0#
#360978
X$
#360996
Z#
0$
#361009
Z$
0%
#361265
X&
#371259
Z%
0$
#371273
Z$
0&
#371285
Z&
0#
#390968
X$
#390977
Z#
0$
#390984
Z$
0%
#391241
X&
#401238
Z%
0$
#401246
Z$
0&
#401256
Z&
0#
#420966
X$
#420974
Z#
0$
#420980
Z$
0%
#421221
X&
#430219
Z%
0$
#430227
Z$
0&
#430237
Z&
0#
#450965
X$
#450972
Z#
0$
#450978
Z$
0%
#451202
X&
#460613
X(
#461200
Z%
0(
#461244
X)
#461254
X*
#461286
X"
#461294
X+
#461347
Z(
0$
#461356
Z$
0&
#461367
Z&
0)
#461380
Z)
0*
#461420
Z*
0+
#461534
Z+
0"
#462027
X'
#462039
Z"
0'
#462082
Z'
0"
#462089
X'
#462095
Z"
0'
#462209
X&
#462224
Z'
0&
#462237
Z&
0'
#463178
Z'
0"
#463209
X&
#463224
Z"
0&
#463237
Z&
0"
#463391
X'
#463400
Z"
0'
#463425
Z'
0"
#463530
X,
#463537
Z"
0,
#463553
Z,
0"
#463559
X,
#463565
Z"
0,
#463655
Z,
0"
#463674
X-
#463680
Z"
0-
#463707
Z-
0"
#463712
X-
#463718
Z"
0-
#463936
Z-
0"
#463962
X!
#463968
Z"
0!
#463990
Z!
0"
#463995
X!
#464001
Z"
0!
#464150
Z!
0"
#464207
X&
#464222
Z"
0&
#464234
Z&
0"
#464302
X!
#464309
Z"
0!
#464315
Z!
0"
#464360
X!
#464365
Z"
0!
#464375
Z!
0"
#464380
X!
#464385
Z"
0!
#464517
Z!
0"
#464590
X,
#464597
Z"
0,
#464604
Z,
0"
#464655
X,
#464661
Z"
0,
#464670
Z,
0"
#464675
X,
#464680
Z"
0,
#464902
Z,
0"
#464925
X-
#464931
Z"
0-
#464957
Z-
0"
#464962
X-
#464967
Z"
0-
#465170
Z-
0"
#465207
X&
#465221
Z"
0&
#465234
Z&
0"
#465312
X,
#465318
Z"
0,
#465324
Z,
0"
#465360
X,
#465365
Z"
0,
#465374
Z,
0"
#465379
X,
#465384
Z"
0,
#465474
Z,
0"
#465542
X,
#465548
Z"
0,
#465554
Z,
0"
#465605
X-
#465611
Z"
0-
#465633
Z-
0"
#465637
X-
#465643
Z"
0-
#465810
Z-
0"
#465833
X'
#465839
Z"
0'
#465871
Z'
0"
#465876
X'
#465882
Z"
0'
#465992
Z'
0"
#466100
X'
#466106
Z"
0'
#466112
Z'
0"
#466158
X-
#466164
Z"
0-
#466184
Z-
0"
#466202
X&
#466216
Z"
0&
#466228
Z&
0"
#466233
X-
#466238
Z"
0-
#466412
Z-
0"
#466434
X'
#466439
Z"
0'
#466449
Z'
0"
#466454
X'
#466459
Z"
0'
#467172
X/
#467181
X'
#467204
X&
#467222
Z'
0&
#467236
Z&
0/
#467426
X/
#467468
Z/
0'
#467912
Z'
0"
#468061
X'
#468069
Z"
0'
#468094
Z'
0"
#468181
X,
#468187
Z"
0,
#468207
X&
#468222
Z,
0&
#468234
Z&
0,
#468249
Z,
0"
#468254
X,
#468260
Z"
0,
#468353
Z,
0"
#468374
X!
#468379
Z"
0!
#468396
Z!
0"
#468401
X!
#468406
Z"
0!
#468545
Z!
0"
#468650
X!
#468657
Z"
0!
#468663
Z!
0"
#468703
X!
#468708
Z"
0!
#468717
Z!
0"
#468722
X!
#468727
Z"
0!
#468847
Z!
0"
#468912
Z"
0#
#476934
X'
#476950
Z#
0'
#477197
X&
#477208
Z'
0&
#477222
Z&
0'
#477436
Z'
0#
#480971
X$
#480984
Z#
0$
#480997
Z$
0%
#481189
X&
#491186
Z%
0$
#491201
Z$
0&
#491214
Z&
0#
#491444
X'
#491457
Z#
0'
#492193
X&
#492212
Z'
0&
#492227
Z&
0'
#492823
X"
#493003
Z'
0"
#493123
X'
#493132
Z"
0'
#493156
Z'
0"
#493190
X&
#493203
Z"
0&
#493216
Z&
0"
#493912
Z"
0#
#508788
X4
#508805
Z#
04
#509177
X&
#509200
Z4
0&
#509217
Z&
04
#509370
Z4
0#
#510171
X&
#510187
Z#
0&
#510196
Z&
0#
#510964
X$
#510970
Z#
0$
#510982
Z$
0%
#511168
X&
#520163
X1
#521167
Z%
0$
#521178
Z$
0&
#521188
Z&
01
#521203
Z1
0#
#521983
X'
#521996
Z#
0'
#522164
X&
#522175
Z'
0&
#522184
Z&
0'
#522350
Z'
0#
#540970
X$
#540980
Z#
0$
#540989
Z$
0%
#541148
X&
#551145
Z%
0$
#551156
Z$
0&
#551166
Z&
0#
#565303
X(
#565314
Z#
0(
#565357
X)
#565368
X*
#565397
X"
#565404
X+
#565453
Z(
0)
#565468
Z)
0*
#565504
Z*
0+
#565601
Z+
0"
#565925
X'
#565937
Z"
0'
#565977
Z'
0"
#565984
X'
#565990
Z"
0'
#566143
X&
#566159
Z'
0&
#566174
Z&
0'
#566620
Z'
0"
#566765
X'
#566774
Z"
0'
#566798
Z'
0"
#566877
X,
#566883
Z"
0,
#566899
Z,
0"
#566904
X,
#566910
Z"
0,
#567003
Z,
0"
#567024
X-
#567029
Z"
0-
#567060
Z-
0"
#567066
X-
#567072
Z"
0-
#567140
X&
#567155
Z-
0&
#567168
Z&
0-
#567356
Z-
0"
#567451
X,
#567459
Z"
0,
#567466
Z,
0"
#567521
X,
#567526
Z"
0,
#567536
Z,
0"
#567541
X,
#567546
Z"
0,
#567778
Z,
0"
#567800
X-
#567805
Z"
0-
#567828
Z-
0"
#567834
X-
#567840
Z"
0-
#568020
Z-
0"
#568106
X,
#568112
Z"
0,
#568119
Z,
0"
#568137
X&
#568151
Z"
0&
#568164
Z&
0"
#568199
X,
#568205
Z"
0,
#568214
Z,
0"
#568219
X,
#568224
Z"
0,
#568316
Z,
0"
#568384
X,
#568391
Z"
0,
#568398
Z,
0"
#568450
X-
#568455
Z"
0-
#568476
Z-
0"
#568481
X-
#568486
Z"
0-
#568647
Z-
0"
#568669
X'
#568674
Z"
0'
#568704
Z'
0"
#568709
X'
#568714
Z"
0'
#568826
Z'
0"
#568935
X'
#568940
Z"
0'
#568948
Z'
0"
#568991
X-
#568997
Z"
0-
#569017
Z-
0"
#569022
X-
#569027
Z"
0-
#569136
X&
#569149
Z-
0&
#569162
Z&
0-
#569238
Z-
0"
#569259
X'
#569265
Z"
0'
#569274
Z'
0"
#569279
X'
#569284
Z"
0'
#569847
Z'
0"
#569970
X'
#569978
Z"
0'
#570002
Z'
0"
#570042
X,
#570047
Z"
0,
#570060
Z,
0"
#570065
X,
#570070
Z"
0,
#570136
X&
#570150
Z,
0&
#570162
Z&
0,
